hdpGLM • hdpGLM
…
## estimating the model
mcmc = list(burn.in=1, ## MCMC burn-in period
            n.iter =50) ## number of MCMC iterations to keep
mod = hdpGLM(support ~ inequality + income + ideology, 
             support ~ gap,
         data=welfare, mcmc=mcmc)

summary(mod)
#> 
#> Generating summary for beta...
#> 
#> Generating summary for tau...
#> $beta
#> # A tibble: 155 x 9
#>        k     j Parameter term           Mean  Median     SD HPD.lower HPD.upper
#>    <dbl> <dbl> <chr>     <chr>         <dbl>   <dbl>  <dbl>     <dbl>     <dbl>
#>  1     1     1 beta[0]   (Intercept) -3.86   -3.86   0.0522   -3.98      -3.76 
#>  2     1     1 beta[1]   inequality   1.77    1.87   0.368     0.531      2.04 
#>  3     1     1 beta[2]   income       3.85    3.86   0.0529    3.73       3.93 
#>  4     1     1 beta[3]   ideology    -8.30   -8.30   0.0384   -8.36      -8.21 
#>  5     1     1 sigma     sigma        1.01    1.00   0.0508    0.913      1.13 
#>  6     1     2 beta[0]   (Intercept) -0.182  -0.155  1.41     -4.99       3.84 
#>  7     1     2 beta[1]   inequality  -0.561  -1.03   1.64     -1.44       3.95 
#>  8     1     2 beta[2]   income      -0.324  -0.270  1.09     -4.48       1.12 
#>  9     1     2 beta[3]   ideology    -2.17   -2.10   0.868    -4.93      -0.297
#> 10     1     2 sigma     sigma        0.0936  0.0924 0.0230    0.0515     0.132
#> # … with 145 more rows
…
